%!PS-Adobe-3.0 EPSF-3.0 
%%BoundingBox: 0 0 119 29
%%Pages: 0
%%Creator: Sun Microsystems, Inc.
%%Title: none
%%CreationDate: none
%%LanguageLevel: 2
%%EndComments
%%BeginProlog
%%BeginResource: procset SDRes-Prolog 1.0 0
/b4_inc_state save def
/dict_count countdictstack def
/op_count count 1 sub def
userdict begin
0 setgray 0 setlinecap 1 setlinewidth 0 setlinejoin 10 setmiterlimit[] 0 setdash newpath
/languagelevel where {pop languagelevel 1 ne {false setstrokeadjust false setoverprint} if} if
/bdef {bind def} bind def
/c {setgray} bdef
/l {neg lineto} bdef
/rl {neg rlineto} bdef
/lc {setlinecap} bdef
/lj {setlinejoin} bdef
/lw {setlinewidth} bdef
/ml {setmiterlimit} bdef
/ld {setdash} bdef
/m {neg moveto} bdef
/ct {6 2 roll neg 6 2 roll neg 6 2 roll neg curveto} bdef
/r {rotate} bdef
/t {neg translate} bdef
/s {scale} bdef
/sw {show} bdef
/gs {gsave} bdef
/gr {grestore} bdef
/f {findfont dup length dict begin
{1 index /FID ne {def} {pop pop} ifelse} forall /Encoding ISOLatin1Encoding def
currentdict end /NFont exch definefont pop /NFont findfont} bdef
/p {closepath} bdef
/sf {scalefont setfont} bdef
/ef {eofill}bdef
/pc {closepath stroke}bdef
/ps {stroke}bdef
/pum {matrix currentmatrix}bdef
/pom {setmatrix}bdef
/bs {/aString exch def /nXOfs exch def /nWidth exch def currentpoint nXOfs 0 rmoveto pum nWidth aString stringwidth pop div 1 scale aString show pom moveto} bdef
%%EndResource
%%EndProlog
%%BeginSetup
%%EndSetup
%%Page: 1 1
%%BeginPageSetup
%%EndPageSetup
pum
0.02838 0.02818 s 
0 -1029 t
/tm matrix currentmatrix def
tm setmatrix
-3599 -4067 t 
1 1 s 

gs
3599 4067 m 7791 4067 l 7791 5095 l 3599 5095 l 3599 4067 l eoclip newpath
pum
3811 4437 t
0.000 c 243 -296 m  170 -47 l  166 -34 164 -25 164 -20 ct 164 -19 165 -18 165 -17 ct 
166 -16 167 -15 168 -15 ct 169 -15 170 -16 172 -18 ct 175 -21 180 -29 187 -42 ct 
194 -38 l  186 -24 178 -14 170 -6 ct 162 1 154 5 147 5 ct 143 5 140 3 137 0 ct 
134 -3 133 -8 133 -14 ct 133 -22 135 -32 139 -46 ct 146 -71 l  125 -40 105 -19 87 -7 ct 
74 1 62 5 51 5 ct 39 5 29 0 21 -9 ct 12 -18 8 -31 8 -47 ct 8 -67 15 -89 29 -113 ct 
44 -136 62 -155 86 -169 ct 104 -181 121 -187 136 -187 ct 144 -187 151 -185 157 -182 ct 
163 -179 169 -174 174 -167 ct 194 -236 l  196 -243 198 -249 199 -254 ct 201 -260 202 -265 202 -268 ct 
202 -271 201 -274 199 -276 ct 196 -278 192 -279 187 -279 ct 184 -279 179 -279 171 -278 ct 
171 -285 l  243 -296 l  p
163 -147 m  163 -156 160 -163 155 -169 ct 149 -174 142 -177 133 -177 ct 114 -177 94 -163 73 -134 ct 
52 -105 42 -77 42 -51 ct 42 -41 45 -33 50 -27 ct 55 -22 62 -19 69 -19 ct 86 -19 106 -35 129 -66 ct 
152 -97 163 -124 163 -147 ct p ef
pom
3731 4569 m  4146 4569 l  4146 4589 l  3731 4589 l  3731 4569 l  p ef
pum
3758 4992 t
243 -296 m  170 -47 l  166 -34 164 -25 164 -20 ct 164 -19 165 -18 165 -17 ct 
166 -16 167 -15 168 -15 ct 169 -15 170 -16 172 -18 ct 175 -21 180 -29 187 -42 ct 
194 -38 l  186 -24 178 -14 170 -6 ct 162 1 154 5 147 5 ct 143 5 140 3 137 0 ct 
134 -3 133 -8 133 -14 ct 133 -22 135 -32 139 -46 ct 146 -71 l  125 -40 105 -19 87 -7 ct 
74 1 62 5 51 5 ct 39 5 29 0 21 -9 ct 12 -18 8 -31 8 -47 ct 8 -67 15 -89 29 -113 ct 
44 -136 62 -155 86 -169 ct 104 -181 121 -187 136 -187 ct 144 -187 151 -185 157 -182 ct 
163 -179 169 -174 174 -167 ct 194 -236 l  196 -243 198 -249 199 -254 ct 201 -260 202 -265 202 -268 ct 
202 -271 201 -274 199 -276 ct 196 -278 192 -279 187 -279 ct 184 -279 179 -279 171 -278 ct 
171 -285 l  243 -296 l  p
163 -147 m  163 -156 160 -163 155 -169 ct 149 -174 142 -177 133 -177 ct 114 -177 94 -163 73 -134 ct 
52 -105 42 -77 42 -51 ct 42 -41 45 -33 50 -27 ct 55 -22 62 -19 69 -19 ct 86 -19 106 -35 129 -66 ct 
152 -97 163 -124 163 -147 ct p ef
326 -238 m  309 -182 l  339 -182 l  335 -169 l  305 -169 l  268 -47 l 
263 -34 261 -25 261 -21 ct 261 -18 261 -17 262 -15 ct 263 -14 264 -14 265 -14 ct 
268 -14 272 -16 277 -21 ct 280 -23 287 -32 297 -46 ct 303 -41 l  292 -23 280 -10 270 -3 ct 
263 2 255 5 248 5 ct 243 5 238 3 234 -1 ct 231 -4 229 -9 229 -15 ct 229 -23 231 -34 236 -49 ct 
272 -169 l  240 -169 l  242 -177 l  258 -181 270 -187 281 -196 ct 291 -204 303 -218 316 -238 ct 
326 -238 l  p ef
pom
pum
4234 4701 t
20 -179 m  92 -191 l  105 -171 114 -148 120 -123 ct 133 -143 144 -157 150 -165 ct 
160 -176 167 -183 173 -186 ct 179 -189 186 -191 192 -191 ct 200 -191 206 -189 210 -185 ct 
214 -181 216 -175 216 -168 ct 216 -161 214 -156 210 -151 ct 206 -147 201 -145 195 -145 ct 
190 -145 185 -146 180 -148 ct 174 -149 170 -150 168 -150 ct 162 -150 156 -148 151 -144 ct 
144 -138 135 -126 125 -108 ct 136 -67 146 -42 153 -33 ct 157 -28 161 -25 165 -25 ct 
169 -25 172 -26 175 -28 ct 179 -31 185 -39 193 -51 ct 200 -47 l  188 -26 176 -12 165 -4 ct 
156 3 147 6 139 6 ct 130 6 123 4 117 0 ct 111 -4 106 -10 102 -19 ct 97 -28 92 -42 86 -62 ct 
69 -42 57 -26 47 -17 ct 38 -7 30 -1 24 2 ct 18 5 12 6 5 6 ct -3 6 -8 4 -13 0 ct -17 -4 -19 -10 -19 -16 ct 
-19 -23 -17 -29 -12 -33 ct -7 -38 -2 -40 5 -40 ct 9 -40 13 -39 18 -37 ct 25 -34 30 -32 33 -32 ct 
37 -32 41 -33 44 -35 ct 48 -37 54 -41 60 -48 ct 64 -52 71 -62 81 -76 ct 68 -125 58 -154 50 -163 ct 
45 -170 39 -173 32 -173 ct 28 -173 23 -172 18 -171 ct 20 -179 l  p ef
pom
pum
4499 4701 t
118 90 m  118 100 l  63 53 36 -24 36 -132 ct 36 -242 63 -320 118 -365 ct 118 -354 l 
79 -315 59 -241 59 -132 ct 59 -23 79 51 118 90 ct p ef
pom
pum
4657 4701 t
114 -238 m  97 -182 l  127 -182 l  123 -169 l  93 -169 l  56 -47 l  51 -34 49 -25 49 -21 ct 
49 -18 49 -17 50 -15 ct 51 -14 52 -14 53 -14 ct 56 -14 60 -16 65 -21 ct 68 -23 75 -32 85 -46 ct 
91 -41 l  80 -23 68 -10 58 -3 ct 51 2 43 5 36 5 ct 31 5 26 3 22 -1 ct 19 -4 17 -9 17 -15 ct 
17 -23 19 -34 24 -49 ct 60 -169 l  28 -169 l  30 -177 l  46 -181 58 -187 69 -196 ct 
79 -204 91 -218 104 -238 ct 114 -238 l  p ef
pom
pum
4843 4701 t
26 90 m  66 51 86 -23 86 -132 ct 86 -240 66 -314 26 -354 ct 26 -365 l  56 -341 78 -306 91 -259 ct 
102 -222 108 -180 108 -132 ct 108 -23 81 55 26 100 ct 26 90 l  p ef
pom
pum
4975 4701 t
46 -150 m  46 -170 l  290 -170 l  290 -150 l  46 -150 l  p
46 -71 m  46 -91 l  290 -91 l  290 -71 l  46 -71 l  p ef
pom
pum
5398 4701 t
115 -161 m  88 -66 l  75 -21 63 11 53 32 ct 42 52 30 67 15 76 ct 1 86 -16 91 -34 91 ct 
-46 91 -54 89 -60 84 ct -65 80 -68 74 -68 68 ct -68 62 -66 57 -61 53 ct -57 49 -51 47 -43 47 ct 
-37 47 -32 49 -29 52 ct -26 55 -24 59 -24 64 ct -24 69 -25 72 -27 74 ct -29 76 -30 78 -30 78 ct 
-29 80 l  -28 81 -27 81 -26 81 ct -22 81 -19 80 -16 77 ct -9 71 -3 63 0 54 ct 2 47 7 31 14 4 ct 
61 -161 l  35 -161 l  41 -186 l  51 -186 59 -187 63 -190 ct 68 -193 73 -199 78 -208 ct 
93 -236 109 -256 125 -268 ct 142 -280 160 -286 181 -286 ct 194 -286 203 -283 209 -278 ct 
215 -273 218 -266 218 -258 ct 218 -251 216 -245 212 -240 ct 208 -236 203 -234 197 -234 ct 
192 -234 187 -236 183 -239 ct 180 -243 178 -247 178 -252 ct 178 -255 179 -259 181 -263 ct 
184 -267 185 -269 185 -271 ct 185 -272 184 -274 183 -275 ct 182 -276 181 -276 179 -276 ct 
171 -276 163 -271 155 -261 ct 141 -245 131 -220 122 -186 ct 149 -186 l  143 -161 l 
115 -161 l  p ef
pom
pum
5663 4701 t
118 90 m  118 100 l  63 53 36 -24 36 -132 ct 36 -242 63 -320 118 -365 ct 118 -354 l 
79 -315 59 -241 59 -132 ct 59 -23 79 51 118 90 ct p ef
pom
pum
5874 4701 t
20 -179 m  92 -191 l  105 -171 114 -148 120 -123 ct 133 -143 144 -157 150 -165 ct 
160 -176 167 -183 173 -186 ct 179 -189 186 -191 192 -191 ct 200 -191 206 -189 210 -185 ct 
214 -181 216 -175 216 -168 ct 216 -161 214 -156 210 -151 ct 206 -147 201 -145 195 -145 ct 
190 -145 185 -146 180 -148 ct 174 -149 170 -150 168 -150 ct 162 -150 156 -148 151 -144 ct 
144 -138 135 -126 125 -108 ct 136 -67 146 -42 153 -33 ct 157 -28 161 -25 165 -25 ct 
169 -25 172 -26 175 -28 ct 179 -31 185 -39 193 -51 ct 200 -47 l  188 -26 176 -12 165 -4 ct 
156 3 147 6 139 6 ct 130 6 123 4 117 0 ct 111 -4 106 -10 102 -19 ct 97 -28 92 -42 86 -62 ct 
69 -42 57 -26 47 -17 ct 38 -7 30 -1 24 2 ct 18 5 12 6 5 6 ct -3 6 -8 4 -13 0 ct -17 -4 -19 -10 -19 -16 ct 
-19 -23 -17 -29 -12 -33 ct -7 -38 -2 -40 5 -40 ct 9 -40 13 -39 18 -37 ct 25 -34 30 -32 33 -32 ct 
37 -32 41 -33 44 -35 ct 48 -37 54 -41 60 -48 ct 64 -52 71 -62 81 -76 ct 68 -125 58 -154 50 -163 ct 
45 -170 39 -173 32 -173 ct 28 -173 23 -172 18 -171 ct 20 -179 l  p ef
pom
pum
6139 4701 t
118 90 m  118 100 l  63 53 36 -24 36 -132 ct 36 -242 63 -320 118 -365 ct 118 -354 l 
79 -315 59 -241 59 -132 ct 59 -23 79 51 118 90 ct p ef
pom
pum
6297 4701 t
114 -238 m  97 -182 l  127 -182 l  123 -169 l  93 -169 l  56 -47 l  51 -34 49 -25 49 -21 ct 
49 -18 49 -17 50 -15 ct 51 -14 52 -14 53 -14 ct 56 -14 60 -16 65 -21 ct 68 -23 75 -32 85 -46 ct 
91 -41 l  80 -23 68 -10 58 -3 ct 51 2 43 5 36 5 ct 31 5 26 3 22 -1 ct 19 -4 17 -9 17 -15 ct 
17 -23 19 -34 24 -49 ct 60 -169 l  28 -169 l  30 -177 l  46 -181 58 -187 69 -196 ct 
79 -204 91 -218 104 -238 ct 114 -238 l  p ef
pom
pum
6456 4701 t
26 90 m  66 51 86 -23 86 -132 ct 86 -240 66 -314 26 -354 ct 26 -365 l  56 -341 78 -306 91 -259 ct 
102 -222 108 -180 108 -132 ct 108 -23 81 55 26 100 ct 26 90 l  p ef
pom
pum
6641 4701 t
-5 46 m  5 42 14 36 20 29 ct 25 23 28 18 28 13 ct 28 10 28 8 27 6 ct 26 5 24 3 21 -1 ct 
18 -4 16 -6 15 -7 ct 14 -10 14 -12 14 -15 ct 14 -21 16 -26 20 -31 ct 24 -35 29 -37 34 -37 ct 
40 -37 45 -35 49 -30 ct 54 -26 56 -20 56 -13 ct 56 -1 51 11 41 24 ct 32 36 18 46 -1 53 ct 
-5 46 l  p ef
pom
pum
6799 4701 t
124 -191 m  80 -51 l  78 -44 77 -40 77 -38 ct 77 -36 77 -35 78 -35 ct 79 -34 80 -33 82 -33 ct 
88 -33 96 -39 107 -50 ct 121 -66 137 -90 153 -121 ct 173 -184 l  225 -186 l 
184 -48 l  180 -37 179 -30 179 -28 ct 179 -27 179 -26 180 -25 ct 181 -24 182 -23 183 -23 ct 
185 -23 187 -24 189 -26 ct 194 -29 201 -37 209 -49 ct 216 -44 l  197 -11 176 6 153 6 ct 
144 6 137 4 132 -1 ct 128 -5 125 -11 125 -18 ct 125 -25 127 -35 130 -46 ct 141 -81 l 
123 -55 110 -37 102 -28 ct 90 -14 79 -5 71 -1 ct 63 4 55 6 47 6 ct 40 6 34 3 28 -2 ct 
23 -8 20 -14 20 -23 ct 20 -30 22 -39 26 -51 ct 52 -133 l  56 -147 58 -156 58 -161 ct 
58 -163 57 -164 56 -166 ct 55 -168 54 -169 51 -170 ct 49 -171 45 -171 40 -171 ct 
42 -179 l  111 -191 l  124 -191 l  p ef
pom
pum
7064 4701 t
118 90 m  118 100 l  63 53 36 -24 36 -132 ct 36 -242 63 -320 118 -365 ct 118 -354 l 
79 -315 59 -241 59 -132 ct 59 -23 79 51 118 90 ct p ef
pom
pum
7249 4701 t
114 -238 m  97 -182 l  127 -182 l  123 -169 l  93 -169 l  56 -47 l  51 -34 49 -25 49 -21 ct 
49 -18 49 -17 50 -15 ct 51 -14 52 -14 53 -14 ct 56 -14 60 -16 65 -21 ct 68 -23 75 -32 85 -46 ct 
91 -41 l  80 -23 68 -10 58 -3 ct 51 2 43 5 36 5 ct 31 5 26 3 22 -1 ct 19 -4 17 -9 17 -15 ct 
17 -23 19 -34 24 -49 ct 60 -169 l  28 -169 l  30 -177 l  46 -181 58 -187 69 -196 ct 
79 -204 91 -218 104 -238 ct 114 -238 l  p ef
pom
pum
7408 4701 t
26 90 m  66 51 86 -23 86 -132 ct 86 -240 66 -314 26 -354 ct 26 -365 l  56 -341 78 -306 91 -259 ct 
102 -222 108 -180 108 -132 ct 108 -23 81 55 26 100 ct 26 90 l  p ef
pom
pum
7540 4701 t
26 90 m  66 51 86 -23 86 -132 ct 86 -240 66 -314 26 -354 ct 26 -365 l  56 -341 78 -306 91 -259 ct 
102 -222 108 -180 108 -132 ct 108 -23 81 55 26 100 ct 26 90 l  p ef
pom
gr
0 1029 t 
pom
count op_count sub {pop} repeat countdictstack dict_count sub {end} repeat b4_inc_state restore
%%PageTrailer
%%Trailer
%%EOF
