%!PS-Adobe-3.0 EPSF-3.0 
%%BoundingBox: 0 0 75 32
%%Pages: 0
%%Creator: Sun Microsystems, Inc.
%%Title: none
%%CreationDate: none
%%LanguageLevel: 2
%%EndComments
%%BeginProlog
%%BeginResource: procset SDRes-Prolog 1.0 0
/b4_inc_state save def
/dict_count countdictstack def
/op_count count 1 sub def
userdict begin
0 setgray 0 setlinecap 1 setlinewidth 0 setlinejoin 10 setmiterlimit[] 0 setdash newpath
/languagelevel where {pop languagelevel 1 ne {false setstrokeadjust false setoverprint} if} if
/bdef {bind def} bind def
/c {setgray} bdef
/l {neg lineto} bdef
/rl {neg rlineto} bdef
/lc {setlinecap} bdef
/lj {setlinejoin} bdef
/lw {setlinewidth} bdef
/ml {setmiterlimit} bdef
/ld {setdash} bdef
/m {neg moveto} bdef
/ct {6 2 roll neg 6 2 roll neg 6 2 roll neg curveto} bdef
/r {rotate} bdef
/t {neg translate} bdef
/s {scale} bdef
/sw {show} bdef
/gs {gsave} bdef
/gr {grestore} bdef
/f {findfont dup length dict begin
{1 index /FID ne {def} {pop pop} ifelse} forall /Encoding ISOLatin1Encoding def
currentdict end /NFont exch definefont pop /NFont findfont} bdef
/p {closepath} bdef
/sf {scalefont setfont} bdef
/ef {eofill}bdef
/pc {closepath stroke}bdef
/ps {stroke}bdef
/pum {matrix currentmatrix}bdef
/pom {setmatrix}bdef
/bs {/aString exch def /nXOfs exch def /nWidth exch def currentpoint nXOfs 0 rmoveto pum nWidth aString stringwidth pop div 1 scale aString show pom moveto} bdef
%%EndResource
%%EndProlog
%%BeginSetup
%%EndSetup
%%Page: 1 1
%%BeginPageSetup
%%EndPageSetup
pum
0.02816 0.02814 s 
0 -1137 t
/tm matrix currentmatrix def
tm setmatrix
-3536 -5758 t 
1 1 s 

gs
3536 5758 m 6198 5758 l 6198 6894 l 3536 6894 l 3536 5758 l eoclip newpath
pum
3853 6208 t
0.000 c 191 -130 m  180 -161 161 -176 132 -176 ct 107 -176 86 -162 71 -133 ct 
58 -109 52 -83 52 -55 ct 52 -41 55 -30 61 -21 ct 69 -11 79 -6 92 -6 ct 117 -6 140 -21 159 -51 ct 
174 -73 185 -100 191 -130 ct p
195 -148 m  196 -163 197 -176 197 -186 ct 197 -209 191 -228 179 -242 ct 167 -257 149 -264 126 -264 ct 
99 -264 79 -253 64 -231 ct 55 -231 l  74 -272 100 -293 133 -293 ct 160 -293 179 -282 192 -260 ct 
203 -241 208 -218 208 -190 ct 208 -143 199 -102 182 -64 ct 160 -17 128 6 87 6 ct 
66 6 49 0 36 -12 ct 23 -25 17 -41 17 -63 ct 17 -96 28 -124 49 -149 ct 71 -174 98 -187 130 -187 ct 
161 -187 183 -174 195 -148 ct p ef
pom
pum
4062 5996 t
116 -33 m  104 0 l  5 0 l  5 -5 l  34 -31 55 -53 67 -70 ct 79 -86 85 -102 85 -116 ct 
85 -126 82 -135 75 -142 ct 68 -149 60 -152 51 -152 ct 43 -152 35 -150 29 -145 ct 
22 -140 17 -133 14 -124 ct 9 -124 l  11 -139 16 -151 25 -159 ct 34 -167 45 -171 58 -171 ct 
71 -171 83 -167 92 -158 ct 101 -149 106 -139 106 -127 ct 106 -119 104 -110 100 -102 ct 
94 -88 84 -74 70 -59 ct 50 -37 37 -23 32 -19 ct 75 -19 l  84 -19 90 -19 94 -20 ct 
97 -21 101 -22 104 -24 ct 106 -26 109 -29 111 -33 ct 116 -33 l  p ef
pom
3666 6233 m  4390 6233 l  4390 6253 l  3666 6253 l  3666 6233 l  p ef
pum
3694 6736 t
191 -130 m  180 -161 161 -176 132 -176 ct 107 -176 86 -162 71 -133 ct 58 -109 52 -83 52 -55 ct 
52 -41 55 -30 61 -21 ct 69 -11 79 -6 92 -6 ct 117 -6 140 -21 159 -51 ct 174 -73 185 -100 191 -130 ct 
p
195 -148 m  196 -163 197 -176 197 -186 ct 197 -209 191 -228 179 -242 ct 167 -257 149 -264 126 -264 ct 
99 -264 79 -253 64 -231 ct 55 -231 l  74 -272 100 -293 133 -293 ct 160 -293 179 -282 192 -260 ct 
203 -241 208 -218 208 -190 ct 208 -143 199 -102 182 -64 ct 160 -17 128 6 87 6 ct 
66 6 49 0 36 -12 ct 23 -25 17 -41 17 -63 ct 17 -96 28 -124 49 -149 ct 71 -174 98 -187 130 -187 ct 
161 -187 183 -174 195 -148 ct p ef
pom
pum
3984 6736 t
19 -179 m  90 -191 l  103 -171 113 -148 118 -123 ct 131 -143 141 -157 148 -165 ct 
157 -176 165 -183 171 -186 ct 177 -189 183 -191 190 -191 ct 197 -191 203 -189 207 -185 ct 
211 -181 213 -175 213 -168 ct 213 -161 211 -156 207 -151 ct 203 -147 198 -145 192 -145 ct 
188 -145 183 -146 177 -148 ct 171 -149 167 -150 165 -150 ct 159 -150 154 -148 149 -144 ct 
142 -138 133 -126 123 -108 ct 134 -67 144 -42 151 -33 ct 155 -28 159 -25 163 -25 ct 
167 -25 170 -26 173 -28 ct 177 -31 183 -39 191 -51 ct 198 -47 l  186 -26 174 -12 163 -4 ct 
154 3 145 6 137 6 ct 128 6 121 4 115 0 ct 109 -4 104 -10 99 -19 ct 95 -28 90 -42 83 -62 ct 
67 -41 55 -26 46 -17 ct 36 -7 29 -1 23 2 ct 17 5 10 6 3 6 ct -4 6 -10 4 -14 0 ct -18 -4 -20 -10 -20 -16 ct 
-20 -23 -18 -29 -13 -33 ct -9 -38 -3 -40 4 -40 ct 8 -40 12 -39 17 -37 ct 24 -34 29 -32 32 -32 ct 
36 -32 40 -33 43 -34 ct 47 -37 52 -41 58 -48 ct 62 -52 69 -61 79 -75 ct 66 -124 56 -154 49 -163 ct 
44 -170 38 -173 31 -173 ct 27 -173 22 -172 17 -171 ct 19 -179 l  p ef
pom
pum
4220 6842 t
82 -171 m  82 -34 l  82 -24 82 -17 83 -14 ct 84 -11 86 -9 89 -7 ct 92 -5 97 -4 103 -4 ct 
107 -4 l  107 0 l  18 0 l  18 -4 l  23 -4 l  30 -4 35 -5 38 -7 ct 41 -8 43 -11 44 -13 ct 
45 -16 46 -23 46 -34 ct 46 -121 l  46 -129 46 -134 45 -136 ct 44 -138 43 -140 41 -141 ct 
39 -142 36 -143 34 -143 ct 29 -143 24 -142 18 -139 ct 16 -143 l  78 -171 l  82 -171 l 
p ef
pom
pum
4220 6524 t
104 0 m  6 0 l  6 -3 l  37 -39 55 -63 62 -75 ct 68 -88 71 -100 71 -112 ct 71 -121 68 -128 63 -133 ct 
58 -139 51 -142 43 -142 ct 30 -142 21 -136 14 -123 ct 9 -124 l  13 -140 20 -152 29 -160 ct 
38 -167 49 -171 61 -171 ct 69 -171 77 -169 84 -165 ct 91 -161 96 -156 100 -149 ct 
104 -142 106 -136 106 -130 ct 106 -119 103 -108 97 -96 ct 89 -81 71 -60 43 -33 ct 
79 -33 l  88 -33 94 -33 96 -34 ct 99 -35 101 -36 103 -38 ct 105 -39 107 -43 110 -48 ct 
115 -48 l  104 0 l  p ef
pom
pum
4404 6366 t
157 0 m  157 -112 l  45 -112 l  45 -132 l  157 -132 l  157 -245 l  178 -245 l 
178 -132 l  289 -132 l  289 -112 l  178 -112 l  178 0 l  157 0 l  p ef
pom
pum
4958 6208 t
191 -130 m  180 -161 161 -176 132 -176 ct 107 -176 86 -162 71 -133 ct 58 -109 52 -83 52 -55 ct 
52 -41 55 -30 61 -21 ct 69 -11 79 -6 92 -6 ct 117 -6 140 -21 159 -51 ct 174 -73 185 -100 191 -130 ct 
p
195 -148 m  196 -163 197 -176 197 -186 ct 197 -209 191 -228 179 -242 ct 167 -257 149 -264 126 -264 ct 
99 -264 79 -253 64 -231 ct 55 -231 l  74 -272 100 -293 133 -293 ct 160 -293 179 -282 192 -260 ct 
203 -241 208 -218 208 -190 ct 208 -143 199 -102 182 -64 ct 160 -17 128 6 87 6 ct 
66 6 49 0 36 -12 ct 23 -25 17 -41 17 -63 ct 17 -96 28 -124 49 -149 ct 71 -174 98 -187 130 -187 ct 
161 -187 183 -174 195 -148 ct p ef
pom
pum
5195 5996 t
116 -33 m  104 0 l  5 0 l  5 -5 l  34 -31 55 -53 67 -70 ct 79 -86 85 -102 85 -116 ct 
85 -126 82 -135 75 -142 ct 68 -149 60 -152 51 -152 ct 43 -152 35 -150 29 -145 ct 
22 -140 17 -133 14 -124 ct 9 -124 l  11 -139 16 -151 25 -159 ct 34 -167 45 -171 58 -171 ct 
71 -171 83 -167 92 -158 ct 101 -149 106 -139 106 -127 ct 106 -119 104 -110 100 -102 ct 
94 -88 84 -74 70 -59 ct 50 -37 37 -23 32 -19 ct 75 -19 l  84 -19 90 -19 94 -20 ct 
97 -21 101 -22 104 -24 ct 106 -26 109 -29 111 -33 ct 116 -33 l  p ef
pom
4774 6233 m  5497 6233 l  5497 6253 l  4774 6253 l  4774 6233 l  p ef
pum
4800 6736 t
191 -130 m  180 -161 161 -176 132 -176 ct 107 -176 86 -162 71 -133 ct 58 -109 52 -83 52 -55 ct 
52 -41 55 -30 61 -21 ct 69 -11 79 -6 92 -6 ct 117 -6 140 -21 159 -51 ct 174 -73 185 -100 191 -130 ct 
p
195 -148 m  196 -163 197 -176 197 -186 ct 197 -209 191 -228 179 -242 ct 167 -257 149 -264 126 -264 ct 
99 -264 79 -253 64 -231 ct 55 -231 l  74 -272 100 -293 133 -293 ct 160 -293 179 -282 192 -260 ct 
203 -241 208 -218 208 -190 ct 208 -143 199 -102 182 -64 ct 160 -17 128 6 87 6 ct 
66 6 49 0 36 -12 ct 23 -25 17 -41 17 -63 ct 17 -96 28 -124 49 -149 ct 71 -174 98 -187 130 -187 ct 
161 -187 183 -174 195 -148 ct p ef
pom
pum
5116 6736 t
19 -179 m  90 -191 l  103 -171 113 -148 118 -123 ct 131 -143 141 -157 148 -165 ct 
157 -176 165 -183 171 -186 ct 177 -189 183 -191 190 -191 ct 197 -191 203 -189 207 -185 ct 
211 -181 213 -175 213 -168 ct 213 -161 211 -156 207 -151 ct 203 -147 198 -145 192 -145 ct 
188 -145 183 -146 177 -148 ct 171 -149 167 -150 165 -150 ct 159 -150 154 -148 149 -144 ct 
142 -138 133 -126 123 -108 ct 134 -67 144 -42 151 -33 ct 155 -28 159 -25 163 -25 ct 
167 -25 170 -26 173 -28 ct 177 -31 183 -39 191 -51 ct 198 -47 l  186 -26 174 -12 163 -4 ct 
154 3 145 6 137 6 ct 128 6 121 4 115 0 ct 109 -4 104 -10 99 -19 ct 95 -28 90 -42 83 -62 ct 
67 -41 55 -26 46 -17 ct 36 -7 29 -1 23 2 ct 17 5 10 6 3 6 ct -4 6 -10 4 -14 0 ct -18 -4 -20 -10 -20 -16 ct 
-20 -23 -18 -29 -13 -33 ct -9 -38 -3 -40 4 -40 ct 8 -40 12 -39 17 -37 ct 24 -34 29 -32 32 -32 ct 
36 -32 40 -33 43 -34 ct 47 -37 52 -41 58 -48 ct 62 -52 69 -61 79 -75 ct 66 -124 56 -154 49 -163 ct 
44 -170 38 -173 31 -173 ct 27 -173 22 -172 17 -171 ct 19 -179 l  p ef
pom
pum
5353 6842 t
104 0 m  6 0 l  6 -3 l  37 -39 55 -63 62 -75 ct 68 -88 71 -100 71 -112 ct 71 -121 68 -128 63 -133 ct 
58 -139 51 -142 43 -142 ct 30 -142 21 -136 14 -123 ct 9 -124 l  13 -140 20 -152 29 -160 ct 
38 -167 49 -171 61 -171 ct 69 -171 77 -169 84 -165 ct 91 -161 96 -156 100 -149 ct 
104 -142 106 -136 106 -130 ct 106 -119 103 -108 97 -96 ct 89 -81 71 -60 43 -33 ct 
79 -33 l  88 -33 94 -33 96 -34 ct 99 -35 101 -36 103 -38 ct 105 -39 107 -43 110 -48 ct 
115 -48 l  104 0 l  p ef
pom
pum
5353 6524 t
104 0 m  6 0 l  6 -3 l  37 -39 55 -63 62 -75 ct 68 -88 71 -100 71 -112 ct 71 -121 68 -128 63 -133 ct 
58 -139 51 -142 43 -142 ct 30 -142 21 -136 14 -123 ct 9 -124 l  13 -140 20 -152 29 -160 ct 
38 -167 49 -171 61 -171 ct 69 -171 77 -169 84 -165 ct 91 -161 96 -156 100 -149 ct 
104 -142 106 -136 106 -130 ct 106 -119 103 -108 97 -96 ct 89 -81 71 -60 43 -33 ct 
79 -33 l  88 -33 94 -33 96 -34 ct 99 -35 101 -36 103 -38 ct 105 -39 107 -43 110 -48 ct 
115 -48 l  104 0 l  p ef
pom
pum
5538 6366 t
45 -150 m  45 -170 l  289 -170 l  289 -150 l  45 -150 l  p
45 -71 m  45 -91 l  289 -91 l  289 -71 l  45 -71 l  p ef
pom
pum
5880 6366 t
15 -138 m  15 -170 20 -198 29 -221 ct 39 -244 52 -261 68 -273 ct 80 -282 93 -286 106 -286 ct 
128 -286 147 -275 164 -253 ct 185 -226 196 -189 196 -143 ct 196 -110 191 -83 182 -60 ct 
173 -37 161 -21 146 -10 ct 132 0 118 5 104 5 ct 77 5 55 -11 38 -42 ct 23 -69 15 -101 15 -138 ct 
p
55 -133 m  55 -95 60 -63 69 -39 ct 77 -18 89 -8 105 -8 ct 112 -8 120 -11 128 -18 ct 
136 -25 142 -36 146 -52 ct 153 -75 156 -109 156 -152 ct 156 -184 153 -210 146 -232 ct 
141 -247 135 -259 127 -265 ct 121 -270 114 -272 106 -272 ct 97 -272 88 -268 81 -259 ct 
71 -248 64 -230 60 -206 ct 57 -181 55 -157 55 -133 ct p ef
pom
gr
0 1137 t 
pom
count op_count sub {pop} repeat countdictstack dict_count sub {end} repeat b4_inc_state restore
%%PageTrailer
%%Trailer
%%EOF
